<?xml version="1.0" encoding="UTF-8"?>
<svg width="30px" height="30px" viewBox="0 0 30 30" version="1.1" xmlns="http://www.w3.org/2000/svg" xmlns:xlink="http://www.w3.org/1999/xlink">
    <!-- Generator: Sketch 52.5 (67469) - http://www.bohemiancoding.com/sketch -->
    <title>icon/download</title>
    <desc>Created with Sketch.</desc>
    <g id="icon/download" stroke="none" stroke-width="1" fill="none" fill-rule="evenodd">
        <path d="M24.5,18 C25.878,18 27,19.122 27,20.5 L27,24.5 C27,25.879 25.878,27 24.5,27 L5.5,27 C4.121,27 3,25.879 3,24.5 L3,20.5 C3,19.122 4.121,18 5.5,18 L24.5,18 Z M21.5,21 C21.222,21 21,21.224 21,21.5 C21,21.777 21.222,22 21.5,22 C21.775,22 22,21.777 22,21.5 C22,21.224 21.775,21 21.5,21 Z M23.5,24 C23.775,24 24,23.776 24,23.5 C24,23.225 23.775,23 23.5,23 L6.5,23 C6.224,23 6,23.225 6,23.5 C6,23.776 6.224,24 6.5,24 L23.5,24 Z M23.5,22 C23.775,22 24,21.777 24,21.5 C24,21.224 23.775,21 23.5,21 C23.222,21 23,21.224 23,21.5 C23,21.777 23.222,22 23.5,22 Z M8.647,10.353 C8.451,10.158 8.451,9.842 8.646,9.647 C8.841,9.452 9.158,9.452 9.353,9.647 L14,14.293 L14,3.5 C14,3.224 14.224,3 14.5,3 C14.776,3 15,3.224 15,3.5 L15,14.293 L19.647,9.646 C19.842,9.451 20.159,9.451 20.354,9.646 C20.549,9.841 20.549,10.158 20.354,10.353 L14.854,15.853 C14.659,16.048 14.342,16.048 14.147,15.853 L8.647,10.353 Z" id="Combined-Shape" fill="#FFFFFF"></path>
    </g>
</svg>