<?xml version="1.0" encoding="UTF-8"?>
<svg width="30px" height="30px" viewBox="0 0 30 30" version="1.1" xmlns="http://www.w3.org/2000/svg" xmlns:xlink="http://www.w3.org/1999/xlink">
    <!-- Generator: Sketch 52.5 (67469) - http://www.bohemiancoding.com/sketch -->
    <title>icon/send-fill</title>
    <desc>Created with Sketch.</desc>
    <g id="icon/send-fill" stroke="none" stroke-width="1" fill="none" fill-rule="evenodd">
        <path d="M13.7900391,22 L16.3791504,22.6867676 L14.3503418,25.9289322 L13.7900391,22 Z M13.7090842,20.5682223 L19.8642578,11.5148926 L12.0696923,20.1345745 L6.15517834,18.5700823 C5.91813291,18.5073796 5.71238632,18.359771 5.57704222,18.1553104 C5.272193,17.6947831 5.39839503,17.0743228 5.85892234,16.7694736 L23.3510599,5.19043289 C23.5483415,5.059841 23.7855352,5.00342539 24.0204866,5.03121235 C24.568949,5.09607727 24.9609822,5.59327729 24.8961172,6.14173968 L23.0376231,21.856152 C23.0321056,21.9028046 23.0233076,21.9490104 23.0112943,21.994426 C22.8700628,22.5283475 22.3227432,22.8466855 21.7888217,22.705454 L13.7090842,20.5682223 Z" id="Combined-Shape" fill="#D5D7DB"></path>
    </g>
</svg>