<?xml version="1.0" encoding="UTF-8"?>
<svg width="30px" height="30px" viewBox="0 0 30 30" version="1.1" xmlns="http://www.w3.org/2000/svg" xmlns:xlink="http://www.w3.org/1999/xlink">
    <!-- Generator: Sketch 52.5 (67469) - http://www.bohemiancoding.com/sketch -->
    <title>icon/template/fill</title>
    <desc>Created with Sketch.</desc>
    <g id="icon/template/fill" stroke="none" stroke-width="1" fill="none" fill-rule="evenodd">
        <path d="M14.5361947,22.2584111 L9.73386436,24.7725243 C9.24457478,25.0286769 8.6402745,24.839682 8.3841219,24.3503924 C8.28267137,24.1566068 8.24755689,23.9349027 8.28415903,23.7192517 L9.19122108,18.3750604 C9.2460911,18.0517795 9.13898419,17.7221383 8.90457364,17.4928503 L5.02950821,13.7024665 C4.63469382,13.3162799 4.62769957,12.6831536 5.0138861,12.2883392 C5.16683723,12.131971 5.3668394,12.0300648 5.58324638,11.9982356 L10.9461719,11.209457 C11.2705861,11.1617422 11.5509956,10.9580127 11.6966246,10.6642212 L14.1040328,5.80752191 C14.3493137,5.31269291 14.9492913,5.11039417 15.4441203,5.35567504 C15.6400998,5.45281977 15.7988224,5.61154238 15.8959672,5.80752191 L18.3033754,10.6642212 C18.4490044,10.9580127 18.7294139,11.1617422 19.0538281,11.209457 L24.4167536,11.9982356 C24.9631599,12.078601 25.3409607,12.5866999 25.2605953,13.1331062 C25.2287662,13.3495132 25.12686,13.5495153 24.9704918,13.7024665 L21.0954264,17.4928503 C20.8610158,17.7221383 20.7539089,18.0517795 20.8087789,18.3750604 L21.715841,23.7192517 C21.8082578,24.2637493 21.4417739,24.7800703 20.8972764,24.8724871 C20.6816254,24.9090893 20.4599213,24.8739748 20.2661356,24.7725243 L15.4638053,22.2584111 C15.1733026,22.1063273 14.8266974,22.1063273 14.5361947,22.2584111 Z M15,20 C17.209139,20 19,18.209139 19,16 C19,13.790861 17.209139,12 15,12 C12.790861,12 11,13.790861 11,16 C11,18.209139 12.790861,20 15,20 Z M15,18 C13.8954305,18 13,17.1045695 13,16 C13,14.8954305 13.8954305,14 15,14 C16.1045695,14 17,14.8954305 17,16 C17,17.1045695 16.1045695,18 15,18 Z" id="Combined-Shape" fill="#FFFFFF"></path>
    </g>
</svg>