<?xml version="1.0" encoding="UTF-8"?>
<svg width="30px" height="30px" viewBox="0 0 30 30" version="1.1" xmlns="http://www.w3.org/2000/svg" xmlns:xlink="http://www.w3.org/1999/xlink">
    <!-- Generator: Sketch 52.5 (67469) - http://www.bohemiancoding.com/sketch -->
    <title>icon/user/fill</title>
    <desc>Created with Sketch.</desc>
    <g id="icon/user/fill" stroke="none" stroke-width="1" fill="none" fill-rule="evenodd">
        <path d="M12.8034712,14.3434784 C10.3286319,15.1367456 8.34332344,17.2369626 7.47475685,19.9385168 C9.08350793,22.3849484 11.8531462,24 15,24 C18.1468538,24 20.9164921,22.3849484 22.5252432,19.9385168 C21.6566766,17.2369626 19.6713681,15.1367456 17.1965288,14.3434784 C18.2829177,13.6283197 19,12.3979016 19,11 C19,8.790861 17.209139,7 15,7 C12.790861,7 11,8.790861 11,11 C11,12.3979016 11.7170823,13.6283197 12.8034712,14.3434784 Z M15,26 C8.92486775,26 4,21.0751322 4,15 C4,8.92486775 8.92486775,4 15,4 C21.0751322,4 26,8.92486775 26,15 C26,21.0751322 21.0751322,26 15,26 Z" id="Combined-Shape" fill="#FFFFFF"></path>
    </g>
</svg>